…
## Load the data

``` r
dd <- read_csv("commute.csv")
```

Let’s have a look at the data

``` r
dd
```

    ## # A tibble: 34 x 4
    ##    direction date       by    minutes
    ##    <chr>     <date>     <chr>   <dbl>
    ##  1 home_work 2015-08-11 metro      51
    ##  2 home_work 2015-08-12 metro      49
    ##  3 home_work 2015-08-18 metro      50
    ##  4 home_work 2015-08-19 metro      45
    ##  5 home_work 2015-08-20 metro      60
    ##  6 home_work 2015-08-24 metro      41
    ##  7 home_work 2015-08-25 metro      46
    ##  8 home_work 2015-08-26 metro      46
    ##  9 home_work 2015-08-31 bike       50
    ## 10 home_work 2015-09-01 metro      41
    ## # … with 24 more rows
…
